<?xml version="1.0" encoding="UTF-8"?>
<session version="1.0">
<refactoring accessors="true" comment="Delete element from project &apos;QSPJAutoTest&apos;&#x0D;&#x0A;- Original project: &apos;QSPJAutoTest&apos;&#x0D;&#x0A;- Original element: &apos;com.qspj.appstorefront.WishListApp.java&apos;" description="Delete element" element1="/src\/main\/java&lt;com.qspj.appstorefront{WishListApp.java" elements="1" flags="589830" id="org.eclipse.jdt.ui.delete" resources="0" stamp="1528436348925" subPackages="false" version="1.0"/>
</session>